%YAML 1.1
%TAG !u! tag:unity3d.com,2011:
--- !u!1045 &1
EditorBuildSettings:
  m_ObjectHideFlags: 0
  serializedVersion: 2
  m_Scenes:
  - enabled: 1
    path: Assets/Main.unity
    guid: 1932b90428367ee43b22ee11f7057835
  - enabled: 1
    path: Assets/Sound.unity
    guid: 931822e01243eea41b9f7c3a8626ae66
  - enabled: 1
    path: Assets/Help.unity
    guid: 43011ae407f3b494482c06d15f1bf664
  - enabled: 1
    path: Assets/Credits.unity
    guid: f85650a9d40c45b4c9fadb8686bfb16c
  - enabled: 1
    path: Assets/DatingPage.unity
    guid: a17bed0e51515a049aae0106c3211b88
  - enabled: 1
    path: Assets/Intro.unity
    guid: 6ee5afde72c014046bd2ca9f8c83b36a
  - enabled: 1
    path: Assets/TextButch.unity
    guid: 4f791d91ce36d514a95f78a4f235b6f3
  - enabled: 1
    path: Assets/TextShelly.unity
    guid: 8bec1e1cdd217b941a2c1f284fe362a1
  - enabled: 1
    path: Assets/TalkButch.unity
    guid: 66305c2ce30c3304a9357f4581242d11
  - enabled: 1
    path: Assets/TalkShelly.unity
    guid: 23d9edaed269f0b4b93aafde4796c29d
  - enabled: 1
    path: Assets/TalkShneal.unity
    guid: 640e0f81621d32748a3f2a892b80c696
  - enabled: 1
    path: Assets/TextShneal.unity
    guid: 7d73ad41f6d1c7d47b218563e9738060
  - enabled: 1
    path: Assets/DanceButch.unity
    guid: 880bc7396ef0942408d71bee56901932
  - enabled: 1
    path: Assets/TalkButch 1.unity
    guid: 7de2f2e6be6df644097683be07a2f76a
  - enabled: 1
    path: Assets/ButchWin.unity
    guid: 1d53283808e3f764b8026af2b83a77d9
  - enabled: 1
    path: Assets/ShelleyDance.unity
    guid: af7f93a5b3864214ca4bc21540429034
  - enabled: 1
    path: Assets/shelley_talk.unity
    guid: 7fe2cfa39f9845d4792a7e3a2d0a96fd
  - enabled: 1
    path: Assets/Failed.unity
    guid: 9b9c6ed0220bed040b9b1c2f46fddb27
  - enabled: 1
    path: Assets/WinShelley.unity
    guid: e1cb4b84d5e9e2347aedf280450f8821
